{
  "components": {
    "defaultPaymentType": "",
    "startOnLoad": false
  },
  "panIcon": true,
  "submitOnSuccess": false,
  "styles": {
    "cardNumber": {
      "isLinedUp": "false",
      "font-family-input": "fantasy",
      "outline-input": "5px dotted green",
      "color-asterisk": "Blue"
    },
    "expirationDate": {
      "isLinedUp": "false",
      "font-family-input": "fantasy",
      "box-shadow-input": "-157px -56px 96px 22px rgba(0,0,0,0.75)",
      "color-asterisk": "Yellow"
    },
    "securityCode": {
      "isLinedUp": "true",
      "font-family-input": "fantasy",
      "box-shadow-input": "9px -9px 5px 0px rgba(0,0,0,0.75)",
      "color-asterisk": "Green"
    }
  }
}
