{
  "iat": 1595513452,
  "payload": {
    "baseamount": "1000",
    "accounttypedescription": "ECOM",
    "currencyiso3a": "GBP",
    "sitereference": "test_james38641",
    "parenttransactionreference": "55-9-164089"
  }
}