{
  "iat": 1595513452,
  "payload": {
    "baseamount": "1000",
    "accounttypedescription": "ECOM",
    "currencyiso3a": "GBP",
    "sitereference": "test_james38641",
    "pan": "4000000000001091",
    "expirydate": "01/26",
    "securitycode": "123",
    "subscriptiontype": "RECURRING",
    "subscriptionunit": "MONTH",
    "subscriptionfrequency": "1",
    "subscriptionnumber": "1",
    "subscriptionfinalnumber": "12",
    "subscriptionbegindate": "2028-01-01",
    "credentialsonfile": "1"
  }
}