{
  "iat": 1595513452,
  "payload": {
    "baseamount": "70000",
    "accounttypedescription": "ECOM",
    "currencyiso3a": "GBP",
    "sitereference": "test_james38641",
    "parenttransactionreference": "57-9-166079"
  }
}
